Projet Final R
…
filtrer_data <- fraudes_canada  %>%
  select(Type_fraude, victim_age_range, Nombre_victimes, Genre)%>%
  filter(
    Type_fraude != "Inconnu", 
    victim_age_range !="'Deceased / Décédé",
    victim_age_range !="'Business / Entreprise",
    Nombre_victimes == 1 ,
    Type_fraude %in% c( "Harponnage","Romance","Urgence (Arrestation, Accident, Hospitalisation, Aide urgente)", "Fraude liée à la vente","Emploi","Enquêteur de la banque","Marchandise contrefaite", "Marchandise", "Investissements", "Service", "Renseignements personnels", "Hameçonnage","Extorsion", "Fraude à l'identité"),
    Genre %in% c( "Autre","Homme", "Femme"))
print(filtrer_data)

## # A tibble: 150,009 × 4
##    Type_fraude            victim_age_range                Nombre_victimes Genre
##    <chr>                  <chr>                                     <dbl> <chr>
##  1 Fraude à l'identité    '40 - 49                                      1 Homme
##  2 Hameçonnage            '30 - 39                                      1 Homme
##  3 Marchandise            '60 - 69                                      1 Homme
##  4 Fraude à l'identité    '70 - 79                                      1 Femme
##  5 Fraude liée à la vente '10 - 19                                      1 Homme
##  6 Hameçonnage            '40 - 49                                      1 Femme
##  7 Hameçonnage            '20 - 29                                      1 Femme
##  8 Harponnage             '70 - 79                                      1 Homme
##  9 Fraude à l'identité    '40 - 49                                      1 Femme
## 10 Fraude à l'identité    'Not Available / non disponible               1 Homme
## # ℹ 149,999 more rows
…
filtrer_data_pred <- fraudes_canada %>%
  select(Type_fraude, Genre, victim_age_range, pertes_financieres, Nombre_victimes) %>%
  filter(pertes_financieres != "$0.00",
         Type_fraude %in% c( "Harponnage","Romance","Urgence (Arrestation, Accident, Hospitalisation, Aide urgente)", "Fraude liée à la vente","Emploi","Enquêteur de la banque","Marchandise contrefaite", "Marchandise", "Investissements", "Service", "Renseignements personnels", "Hameçonnage","Extorsion", "Fraude à l'identité"), victim_age_range !="'Deceased / Décédé",
    victim_age_range !="'Business / Entreprise", Genre %in% c( "Autre","Homme", "Femme"))%>%
  mutate(pertes_financieres = as.numeric(gsub("[$,]", "", pertes_financieres)),
         Type_fraude=as.factor(Type_fraude), Genre, victim_age_range)%>%
  filter(pertes_financieres<30000)

print(filtrer_data_pred)

## # A tibble: 43,682 × 5
##    Type_fraude         Genre victim_age_range pertes_financieres Nombre_victimes
##    <fct>               <chr> <chr>                         <dbl>           <dbl>
##  1 Marchandise         Homme '60 - 69                      223.                1
##  2 Fraude liée à la v… Homme '10 - 19                      300                 1
##  3 Harponnage          Homme '70 - 79                     1600                 1
##  4 Extorsion           Homme '40 - 49                    24000                 1
##  5 Marchandise         Homme '30 - 39                    11000                 1
##  6 Marchandise         Femme '30 - 39                       95.4               1
##  7 Marchandise         Homme '20 - 29                       97.3               1
##  8 Marchandise         Femme '20 - 29                       50                 1
##  9 Urgence (Arrestati… Homme '50 - 59                      700                 1
## 10 Emploi              Femme '20 - 29                    24466.                1
## # ℹ 43,672 more rows
…
## New names:
## • `victim_age_range_X.10...19` -> `victim_age_range_X.10`
## • `victim_age_range_X.20...29` -> `victim_age_range_X.20`
## • `victim_age_range_X.30...39` -> `victim_age_range_X.30`
## • `victim_age_range_X.40...49` -> `victim_age_range_X.40`
## • `victim_age_range_X.50...59` -> `victim_age_range_X.50`
## • `victim_age_range_X.60...69` -> `victim_age_range_X.60`
## • `victim_age_range_X.70...79` -> `victim_age_range_X.70`
## • `victim_age_range_X.80...89` -> `victim_age_range_X.80`
## • `victim_age_range_X.90...99` -> `victim_age_range_X.90`

fcm_fit %>%
  tidy()

## # A tibble: 24 × 5
##    term                                estimate std.error statistic   p.value
##    <chr>                                  <dbl>     <dbl>     <dbl>     <dbl>
##  1 (Intercept)                            5008.     1931.      2.59 9.49e-  3
##  2 Type_fraude_Enquêteur.de.la.banque      511.      175.      2.92 3.48e-  3
##  3 Type_fraude_Extorsion                 -1616.      179.     -9.04 1.73e- 19
##  4 Type_fraude_Fraude.liée.à.la.vente    -4758.      145.    -32.8  3.84e-232
##  5 Type_fraude_Harponnage                -3868.      224.    -17.3  1.62e- 66
##  6 Type_fraude_Investissements            2604.      135.     19.3  2.81e- 82
##  7 Type_fraude_Marchandise               -4687.      127.    -37.0  7.43e-293
##  8 Type_fraude_Marchandise.contrefaite   -5814.      147.    -39.6  0        
##  9 Type_fraude_Romance                    2249.      179.     12.6  2.70e- 36
## 10 Type_fraude_Service                   -3101.      142.    -21.8  1.22e-104
## # ℹ 14 more rows
…
## New names:
## • `victim_age_range_X.10...19` -> `victim_age_range_X.10`
## • `victim_age_range_X.20...29` -> `victim_age_range_X.20`
## • `victim_age_range_X.30...39` -> `victim_age_range_X.30`
## • `victim_age_range_X.40...49` -> `victim_age_range_X.40`
## • `victim_age_range_X.50...59` -> `victim_age_range_X.50`
## • `victim_age_range_X.60...69` -> `victim_age_range_X.60`
## • `victim_age_range_X.70...79` -> `victim_age_range_X.70`
## • `victim_age_range_X.80...89` -> `victim_age_range_X.80`
## • `victim_age_range_X.90...99` -> `victim_age_range_X.90`

fcm_pred%>%
  select(.pred, pertes_financieres)

## # A tibble: 10,921 × 2
##    .pred pertes_financieres
##    <dbl>              <dbl>
##  1 2948.             1600  
##  2 1632.            11000  
##  3 5154.            24466. 
##  4  467.               50  
##  5  731.            10000  
##  6 1643.              165. 
##  7 1556.              150  
##  8 1579.               42.4
##  9 1467.             5618. 
## 10 7667.             1400  
## # ℹ 10,911 more rows
…
## `summarise()` has grouped output by 'Type_fraude'. You can override using the
## `.groups` argument.

print(fraudes_québec)

## # A tibble: 27 × 4
## # Groups:   Type_fraude [14]
##    Type_fraude            Langue_correspondance victimes_total Province
##    <chr>                  <chr>                          <dbl> <chr>   
##  1 Emploi                 Anglais                           16 Québec  
##  2 Emploi                 Français                          24 Québec  
##  3 Enquêteur de la banque Anglais                           15 Québec  
##  4 Enquêteur de la banque Français                          38 Québec  
##  5 Extorsion              Anglais                           20 Québec  
##  6 Extorsion              Français                          48 Québec  
##  7 Fraude liée à la vente Anglais                            9 Québec  
##  8 Fraude liée à la vente Français                          40 Québec  
##  9 Fraude à l'identité    Anglais                          180 Québec  
## 10 Fraude à l'identité    Français                        1580 Québec  
## # ℹ 17 more rows
…
